{
  "swagger": "2.0",
  "info": {
    "version": "1.0.0",
    "title": "WallStreet Football",
    "description": "API documentation"
  },
  "host": "localhost:3000",
  "basePath": "/",
  "tags": [
    {
      "name": "Player",
      "description": "Endpoints"
    }
  ],
  "schemes": [
    "http",
    "https"
  ],
  "consumes": [
    "application/json"
  ],
  "produces": [
    "application/json"
  ],
  "paths": {
    "/player/create": {
      "post": {
        "tags": [
          "Player"
        ],
        "description": "Endpoint create a new player",
        "parameters": [
          {
            "name": "object",
            "in": "body",
            "description": "Player information.",
            "required": true,
            "schema": {
              "$ref": "#/definitions/Player"
            }
          }
        ],
        "responses": {
          "200": {
            "description": "Player added successfully",
            "schema": {
              "type": "object",
              "properties": {
                "message": {
                  "type": "string",
                  "example": "Player added successfully"
                }
              },
              "xml": {
                "name": "main"
              }
            }
          }
        }
      }
    },
    "/player/list": {
      "get": {
        "tags": [
          "Player"
        ],
        "description": "Returns array of players",
        "parameters": [],
        "responses": {
          "200": {
            "description": "OK",
            "schema": {
              "type": "object",
              "properties": {
                "count": {
                  "type": "number",
                  "example": 1
                },
                "data": {
                  "type": "array",
                  "items": {
                    "$ref": "#/definitions/Player"
                  }
                }
              },
              "xml": {
                "name": "main"
              }
            }
          }
        }
      }
    },
    "/player/{id}/set/margin/{margin}": {
      "patch": {
        "tags": [
          "Player"
        ],
        "description": "Sets odds for the player based on margin",
        "parameters": [
          {
            "name": "id",
            "in": "path",
            "required": true,
            "type": "string"
          },
          {
            "name": "margin",
            "in": "path",
            "required": true,
            "type": "string"
          }
        ],
        "responses": {
          "200": {
            "description": "Player updated successfully",
            "schema": {
              "type": "object",
              "properties": {
                "message": {
                  "type": "string",
                  "example": "Player odds updated succesfully"
                }
              },
              "xml": {
                "name": "main"
              }
            }
          }
        }
      }
    }
  },
  "definitions": {
    "Player": {
      "type": "object",
      "properties": {
        "name": {
          "type": "string",
          "example": "Ronaldo"
        },
        "position": {
          "type": "string",
          "example": "Goalkeeper"
        },
        "odds": {
          "type": "number",
          "example": 0
        },
        "margin": {
          "type": "number",
          "example": 0
        }
      },
      "required": [
        "name",
        "position"
      ]
    }
  }
}